document
…
Grid tunning

Dado que solo tenemos un hiperparámetro para ajustar aquí, podemos configurar la cuadrícula manualmente usando un tibble de una columna con 30 valores candidatos:

lr_reg_grid <- tibble(penalty = 10^seq(-4, -1, length.out = 30))

Estos son los valores que se probarán en el entrenamiento: difererentes valores para el hiperparámetro penalty.

lr_reg_grid

# A tibble: 30 × 1
    penalty
      <dbl>
 1 0.0001  
 2 0.000127
 3 0.000161
 4 0.000204
 5 0.000259
 6 0.000329
 7 0.000418
 8 0.000530
 9 0.000672
10 0.000853
# ℹ 20 more rows
…
set.seed(345)
rf_res <- 
  rf_workflow %>% 
  tune_grid(val_set,
            grid = 25,
            control = control_grid(save_pred = TRUE),
            metrics = metric_set(roc_auc))

i Creating pre-processing data to finalize unknown parameter: mtry

Podemos observar todas los resultados para cada valor de mtry y min_n ejecutando lo siguiente:

rf_res %>% collect_metrics()

# A tibble: 24 × 8
    mtry min_n .metric .estimator  mean     n std_err .config              
   <int> <int> <chr>   <chr>      <dbl> <int>   <dbl> <chr>                
 1     4     7 roc_auc binary     0.950     1      NA Preprocessor1_Model01
 2     8    30 roc_auc binary     0.941     1      NA Preprocessor1_Model02
 3     3    25 roc_auc binary     0.929     1      NA Preprocessor1_Model03
 4     7    34 roc_auc binary     0.935     1      NA Preprocessor1_Model04
 5     4     4 roc_auc binary     0.945     1      NA Preprocessor1_Model05
 6     5    10 roc_auc binary     0.934     1      NA Preprocessor1_Model06
 7     1    38 roc_auc binary     0.926     1      NA Preprocessor1_Model07
 8     5    11 roc_auc binary     0.935     1      NA Preprocessor1_Model08
 9     6    19 roc_auc binary     0.935     1      NA Preprocessor1_Model09
10     7    29 roc_auc binary     0.932     1      NA Preprocessor1_Model10
# ℹ 14 more rows
…
